[
	{
		firstName:"Johna",
        lastName:"Doeq",
        emailAddress: "sample1@gmail.com"
		age:26
	},{
		firstName:"Johnb",
        lastName:"Doew"
        emailAddress: "sample2@gmail.com"
		age:27
	},{
		firstName:"Johnc",
        lastName:"Doee"
        emailAddress: "sample3@gmail.com"
		age:28
	},{
		firstName:"Johnd",
        lastName:"Doer"
        emailAddress: "sample4@gmail.com"
		age:29
	}
]